{
  "product": "ObjectFlow",
  "operations": {
    "ViewResourcesObjectFlow": {
      "displayName": "View Resources",
      "description": "Read-only mode for different resources"
    },
    "ManageResourcesObjectFlow": {
      "displayName": "Manage Resources",
      "description": "Write mode for different resources"
    }
  }
}
