{
  "product": "CloudFlow",
  "operations": {
    "ViewResources": {
      "displayName": "View Resources",
      "description": "Read-only mode for different resources"
    },
    "ManageResources": {
      "displayName": "Manage Resources",
      "description": "Write mode for different resources"
    },
    "SetupCloudAccounts": {
      "displayName": "Setup Cloud Accounts",
      "description": "Ability to add/update/remove accounts"
    },
    "AdminSettings": {
      "displayName": "Admin Settings",
      "description": "View and modify all settings"
    }
  }
}
